Total height: 20px + 1px + 10px + 150px + 10px + 1px + 20px = 212

Total Width: 20px + 1px + 10px + 400px +10px + 1px + 20px = 462

Browser Calculated Width: 1px + 10px + 400px + 10px + 1px = 422

Browser Calculated Height: 1px + 10px + 150px + 10px + 1px = 172
